                                                                                
                                                                                
                                                                                
                                                                                
                             <aa,            _a_,                               
                          ._jWmB[           <QBP                                
                        jQWWWBWW[          jWW!                                 
                        ----]BWB[         jW#^                                  
                            )BWW[       .yQB'                                   
                            )BWm[      _mWE`                                    
                            )BWW[     _QWP  _wmmmmmw,                           
                            )mWB[    xWWF  wQWZ?"?$mQg.                         
                            )#W#[   jBW(  ]WWW     WWW[                         
                                  .wW#'           aWmW(                         
                                 _yWD'         _amWWB^                          
                                _QmP`        awWWW?"                            
                               <WmF        <mWmP^                               
                              xBW!        <WWWQmmmmmmmc                         
                             jU#(         )???????????^                         
                                                                                
                                                                                
                                                                                
                                                                                
                                                                                
